{
  "version": 2,
  "cli": {
    "defaultCollection": "@nrwl/nest"
  },
  "defaultProject": "my-app",
  "projects": {
    "my-app": {
      "root": "apps/my-app",
      "sourceRoot": "apps/my-app/src",
      "projectType": "application",
      "prefix": "my-app",
      "targets": {
        "build": {
          "executor": "@nrwl/node:build",
          "outputs": ["{options.outputPath}"],
          "options": {
            "outputPath": "dist/apps/my-app",
            "main": "apps/my-app/src/main.ts",
            "tsConfig": "apps/my-app/tsconfig.app.json",
            "assets": ["apps/my-app/src/assets"]
          },
          "configurations": {
            "production": {
              "optimization": true,
              "extractLicenses": true,
              "inspect": false,
              "fileReplacements": [
                {
                  "replace": "apps/my-app/src/environments/environment.ts",
                  "with": "apps/my-app/src/environments/environment.prod.ts"
                }
              ]
            }
          }
        },
        "serve": {
          "executor": "@nrwl/node:execute",
          "options": {
            "buildTarget": "my-app:build"
          }
        },
        "lint": {
          "executor": "@nrwl/linter:eslint",
          "options": {
            "lintFilePatterns": ["apps/my-app/**/*.ts"]
          }
        },
        "test": {
          "executor": "@nrwl/jest:jest",
          "outputs": ["coverage/apps/my-app"],
          "options": {
            "jestConfig": "apps/my-app/jest.config.js",
            "passWithNoTests": true
          }
        }
      }
    }
  }
}
